{
	"tasks" : {		
			"101": [
			{
				"taskId": "1",
				"taskName": "Introduction of Polymer",
				"deadline": "20-03-2018"
			},
			{
				"taskId": "2",
				"taskName": "Custom Html Element",
				"deadline": "22-03-2018"
			},
			{
				"taskId": "3",
				"taskName": "Shadow Dom",
				"deadline": "24-03-2018"
			}
		],
		"102": [
			{
				"taskId": "1",
				"taskName": "Introduction of Java",
				"deadline": "20-03-2018"
			},
			{
				"taskId": "2",
				"taskName": "Classes in Java",
				"deadline": "23-03-2018"
			}
		]
	}
}